varId	SVtype
52310_52312	SVTYPE=DEL;SVLEN=-30
52314_52316	SVTYPE=DEL;SVLEN=-23
52316_52318	SVTYPE=DEL;SVLEN=-602
52318_52320	SVTYPE=INS;SVLEN=39
52320_52322	SVTYPE=DEL;SVLEN=-1230
52322_52324	SVTYPE=DEL;SVLEN=-291
52324_52327	SVTYPE=DEL;SVLEN=-630
52327_52329	SVTYPE=DEL;SVLEN=-344
52329_52331	SVTYPE=INS;SVLEN=91
52331_52333	SVTYPE=INS;SVLEN=11346
52333_52335	SVTYPE=INS;SVLEN=42
52335_52338	SVTYPE=INS;SVLEN=194
52338_52342	SVTYPE=DEL;SVLEN=-188
52342_52344	SVTYPE=INS;SVLEN=35
52344_52346	SVTYPE=INS;SVLEN=149
52346_52348	SVTYPE=DEL;SVLEN=-68
52348_52350	SVTYPE=DEL;SVLEN=-21
52350_52352	SVTYPE=DEL;SVLEN=-42
52352_52354	SVTYPE=DEL;SVLEN=-149
52354_52357	SVTYPE=INS;SVLEN=292
52357_52360	SVTYPE=INS;SVLEN=221
52360_52363	SVTYPE=DEL;SVLEN=-38
52363_52366	SVTYPE=INS;SVLEN=174
52366_52368	SVTYPE=INS;SVLEN=2653
52368_52370	SVTYPE=DEL;SVLEN=-77
52370_52372	SVTYPE=INS;SVLEN=998
52372_52374	SVTYPE=DEL;SVLEN=-67
52374_52378	SVTYPE=INS;SVLEN=409
52378_52380	SVTYPE=DEL;SVLEN=-683
52380_52381	SVTYPE=INS;SVLEN=60
52381_52383	SVTYPE=DEL;SVLEN=-699
52383_52387	SVTYPE=INS;SVLEN=37
52387_52389	SVTYPE=DEL;SVLEN=-787
52389_52391	SVTYPE=DEL;SVLEN=-64
52391_52393	SVTYPE=INS;SVLEN=41
52393_52394	SVTYPE=DEL;SVLEN=-54
52394_52396	SVTYPE=DEL;SVLEN=-176
52396_52398	SVTYPE=INS;SVLEN=22
52398_52400	SVTYPE=INS;SVLEN=67
52400_52402	SVTYPE=DEL;SVLEN=-23
52402_52404	SVTYPE=INS;SVLEN=611
52404_52407	SVTYPE=DEL;SVLEN=-195
52407_52409	SVTYPE=INS;SVLEN=86
52409_52411	SVTYPE=INS;SVLEN=1978
52411_52413	SVTYPE=INS;SVLEN=241
52413_52415	SVTYPE=DEL;SVLEN=-21
52415_52417	SVTYPE=DEL;SVLEN=-141
52417_52419	SVTYPE=INS;SVLEN=615
52419_52421	SVTYPE=INS;SVLEN=40
52421_52423	SVTYPE=INS;SVLEN=238
52423_52425	SVTYPE=DEL;SVLEN=-58
52425_52426	SVTYPE=DEL;SVLEN=-83
52426_52428	SVTYPE=DEL;SVLEN=-82
52428_52430	SVTYPE=INS;SVLEN=42
52430_52433	SVTYPE=DEL;SVLEN=-762
52433_52435	SVTYPE=INS;SVLEN=9
52435_52437	SVTYPE=INS;SVLEN=1235
52437_52439	SVTYPE=DEL;SVLEN=-192
52439_52441	SVTYPE=DEL;SVLEN=-49
52441_52445	SVTYPE=DEL;SVLEN=-9
52445_52447	SVTYPE=DEL;SVLEN=-41
52447_52449	SVTYPE=INS;SVLEN=40
52449_52452	SVTYPE=INS;SVLEN=1227
52452_52454	SVTYPE=DEL;SVLEN=-209
52454_52460	SVTYPE=INS;SVLEN=727
52460_52466	SVTYPE=INS;SVLEN=1710
52466_52468	SVTYPE=DEL;SVLEN=-250
52468_52470	SVTYPE=DEL;SVLEN=-30
52470_52472	SVTYPE=DEL;SVLEN=-34
52472_52474	SVTYPE=DEL;SVLEN=-145
52474_52476	SVTYPE=INS;SVLEN=19
52476_52478	SVTYPE=INS;SVLEN=425
52478_52480	SVTYPE=DEL;SVLEN=-93
52480_52483	SVTYPE=INS;SVLEN=56
52483_52485	SVTYPE=INS;SVLEN=57
52485_52486	SVTYPE=DEL;SVLEN=-358
52486_52488	SVTYPE=DEL;SVLEN=-67
52488_52490	SVTYPE=DEL;SVLEN=-44
52490_52494	SVTYPE=DEL;SVLEN=-62
52494_52496	SVTYPE=INS;SVLEN=56
52496_52498	SVTYPE=DEL;SVLEN=-21
52498_52499	SVTYPE=DEL;SVLEN=-4703
52499_52502	SVTYPE=DEL;SVLEN=-76
52502_52504	SVTYPE=INS;SVLEN=239
52504_52506	SVTYPE=INS;SVLEN=622
52506_52510	SVTYPE=DEL;SVLEN=-4076
52510_52512	SVTYPE=INS;SVLEN=37
52512_52514	SVTYPE=DEL;SVLEN=-5
52514_52515	SVTYPE=INS;SVLEN=211
52515_52517	SVTYPE=INS;SVLEN=623
52517_52519	SVTYPE=INS;SVLEN=50
52519_52523	SVTYPE=DEL;SVLEN=-1384
52523_52525	SVTYPE=DEL;SVLEN=-106
52525_52527	SVTYPE=DEL;SVLEN=-655
52527_52529	SVTYPE=INS;SVLEN=120
52529_52531	SVTYPE=DEL;SVLEN=-52
52531_52533	SVTYPE=DEL;SVLEN=-1125
52533_52535	SVTYPE=DEL;SVLEN=-602
52535_52537	SVTYPE=DEL;SVLEN=-27
52537_52539	SVTYPE=DEL;SVLEN=-21
52539_52540	SVTYPE=DEL;SVLEN=-369
52540_52543	SVTYPE=INS;SVLEN=31
52543_52545	SVTYPE=INS;SVLEN=880
52545_52549	SVTYPE=INS;SVLEN=498
52549_52551	SVTYPE=INS;SVLEN=125
52551_52552	SVTYPE=DEL;SVLEN=-331
52552_52554	SVTYPE=DEL;SVLEN=-84
52554_52556	SVTYPE=INS;SVLEN=2231
52556_52558	SVTYPE=INS;SVLEN=965
52558_52561	SVTYPE=DEL;SVLEN=-3
52561_52563	SVTYPE=DEL;SVLEN=-84
52563_52565	SVTYPE=DEL;SVLEN=-37
52565_52567	SVTYPE=DEL;SVLEN=-28
52567_52569	SVTYPE=INS;SVLEN=26
52569_52574	SVTYPE=DEL;SVLEN=-141
52574_52576	SVTYPE=DEL;SVLEN=-128
52576_52578	SVTYPE=DEL;SVLEN=-718
52578_52582	SVTYPE=DEL;SVLEN=-783
52582_52584	SVTYPE=INS;SVLEN=68
52584_52586	SVTYPE=DEL;SVLEN=-32
52586_52588	SVTYPE=DEL;SVLEN=-117
52588_52590	SVTYPE=DEL;SVLEN=-131
52590_52594	SVTYPE=INS;SVLEN=117
52594_52596	SVTYPE=DEL;SVLEN=-140
52596_52597	SVTYPE=DEL;SVLEN=-278
52597_52600	SVTYPE=INS;SVLEN=32
52600_52602	SVTYPE=INS;SVLEN=602
52602_52604	SVTYPE=INS;SVLEN=112
52604_52606	SVTYPE=INS;SVLEN=596
52606_52608	SVTYPE=DEL;SVLEN=-543
52608_52610	SVTYPE=INS;SVLEN=699
52610_52612	SVTYPE=INS;SVLEN=27
52612_52614	SVTYPE=INS;SVLEN=56
52614_52617	SVTYPE=INS;SVLEN=3
52617_52619	SVTYPE=INS;SVLEN=17
52619_52621	SVTYPE=INS;SVLEN=30
52621_52623	SVTYPE=INS;SVLEN=81
52623_52625	SVTYPE=INS;SVLEN=22
52625_52627	SVTYPE=INS;SVLEN=147
52627_52629	SVTYPE=INS;SVLEN=156
52629_52630	SVTYPE=DEL;SVLEN=-128
52630_52631	SVTYPE=DEL;SVLEN=-63
52631_52633	SVTYPE=INS;SVLEN=354
52633_52635	SVTYPE=DEL;SVLEN=-15
52635_52637	SVTYPE=DEL;SVLEN=-262
52637_52639	SVTYPE=DEL;SVLEN=-162
52639_52641	SVTYPE=INS;SVLEN=29
52641_52643	SVTYPE=INS;SVLEN=44
52643_52645	SVTYPE=DEL;SVLEN=-66
52645_52647	SVTYPE=INS;SVLEN=1365
52647_52649	SVTYPE=DEL;SVLEN=-159
52649_52651	SVTYPE=INS;SVLEN=55
52651_52653	SVTYPE=DEL;SVLEN=-43
52653_52656	SVTYPE=DEL;SVLEN=-437
52656_52658	SVTYPE=INS;SVLEN=191
52658_52664	SVTYPE=DEL;SVLEN=-2680
52664_52666	SVTYPE=DEL;SVLEN=-132
52666_52668	SVTYPE=DEL;SVLEN=-71
52668_52670	SVTYPE=INS;SVLEN=59
52670_52672	SVTYPE=INS;SVLEN=50
52672_52674	SVTYPE=DEL;SVLEN=-1409
52674_52676	SVTYPE=INS;SVLEN=32
52676_52678	SVTYPE=DEL;SVLEN=-41
52678_52682	SVTYPE=INS;SVLEN=31
52682_52684	SVTYPE=DEL;SVLEN=-36
52684_52686	SVTYPE=DEL;SVLEN=-43
52686_52688	SVTYPE=INS;SVLEN=37
52688_52690	SVTYPE=DEL;SVLEN=-45
52690_52693	SVTYPE=DEL;SVLEN=-1090
52693_52695	SVTYPE=DEL;SVLEN=-1347
52695_52697	SVTYPE=INS;SVLEN=73
52697_52699	SVTYPE=INS;SVLEN=7
52699_52701	SVTYPE=DEL;SVLEN=-82
52701_52703	SVTYPE=DEL;SVLEN=-48
52703_52705	SVTYPE=DEL;SVLEN=-10
52705_52707	SVTYPE=DEL;SVLEN=-29
52707_52710	SVTYPE=DEL;SVLEN=-678
52710_52712	SVTYPE=INS;SVLEN=256
52712_52714	SVTYPE=DEL;SVLEN=-54
52714_52716	SVTYPE=DEL;SVLEN=-122
52716_52718	SVTYPE=DEL;SVLEN=-42
52718_52720	SVTYPE=INS;SVLEN=64
52720_52724	SVTYPE=INS;SVLEN=40
52724_52726	SVTYPE=INS;SVLEN=640
52726_52728	SVTYPE=DEL;SVLEN=-340
52728_52730	SVTYPE=INS;SVLEN=774
52730_52732	SVTYPE=INS;SVLEN=277
52732_52734	SVTYPE=INS;SVLEN=324
52734_52735	SVTYPE=DEL;SVLEN=-133
52735_52736	SVTYPE=INS;SVLEN=131
52736_52738	SVTYPE=DEL;SVLEN=-20
52738_52740	SVTYPE=INS;SVLEN=69
52740_52742	SVTYPE=INS;SVLEN=256
52742_52744	SVTYPE=DEL;SVLEN=-765
52744_52746	SVTYPE=DEL;SVLEN=-45
52746_52748	SVTYPE=INS;SVLEN=4756
52748_52750	SVTYPE=INS;SVLEN=311
52750_52752	SVTYPE=DEL;SVLEN=-96
52752_52754	SVTYPE=INS;SVLEN=337
52754_52755	SVTYPE=INS;SVLEN=235
52755_52757	SVTYPE=INS;SVLEN=239
52757_52760	SVTYPE=INS;SVLEN=150
52760_52762	SVTYPE=DEL;SVLEN=-250
52762_52764	SVTYPE=DEL;SVLEN=-69
52764_52765	SVTYPE=DEL;SVLEN=-240
52765_52767	SVTYPE=DEL;SVLEN=-60
52767_52769	SVTYPE=DEL;SVLEN=-30
52769_52773	SVTYPE=DEL;SVLEN=-1191
52773_52775	SVTYPE=INS;SVLEN=156
52775_52777	SVTYPE=DEL;SVLEN=-58
52777_52779	SVTYPE=INS;SVLEN=70
52779_52781	SVTYPE=INS;SVLEN=2
52781_52783	SVTYPE=INS;SVLEN=199
52783_52785	SVTYPE=INS;SVLEN=40
52785_52787	SVTYPE=DEL;SVLEN=-105
52787_52789	SVTYPE=INS;SVLEN=214
52789_52791	SVTYPE=DEL;SVLEN=-56
52791_52796	SVTYPE=DEL;SVLEN=-2159
52796_52798	SVTYPE=DEL;SVLEN=-106
52798_52800	SVTYPE=DEL;SVLEN=-71
52800_52802	SVTYPE=INS;SVLEN=212
52802_52804	SVTYPE=DEL;SVLEN=-893
52804_52806	SVTYPE=DEL;SVLEN=-194
52806_52808	SVTYPE=INS;SVLEN=64
52808_52811	SVTYPE=DEL;SVLEN=-3992
52811_52813	SVTYPE=INS;SVLEN=21
52813_52818	SVTYPE=INS;SVLEN=140
52818_52820	SVTYPE=INS;SVLEN=48
52820_52823	SVTYPE=INS;SVLEN=49
52823_52825	SVTYPE=INS;SVLEN=323
52825_52827	SVTYPE=INS;SVLEN=39
52827_52828	SVTYPE=DEL;SVLEN=-730
52828_52832	SVTYPE=INS;SVLEN=1484
52832_52835	SVTYPE=DEL;SVLEN=-6187
52835_52836	SVTYPE=DEL;SVLEN=-91
52836_52838	SVTYPE=DEL;SVLEN=-39
52838_52840	SVTYPE=INS;SVLEN=1919
52840_52843	SVTYPE=INS;SVLEN=55
52843_52846	SVTYPE=DEL;SVLEN=-28
52846_52848	SVTYPE=DEL;SVLEN=-132
52848_52850	SVTYPE=DEL;SVLEN=-550
52850_52854	SVTYPE=INS;SVLEN=297
52854_52856	SVTYPE=INS;SVLEN=150
52856_52859	SVTYPE=INS;SVLEN=920
52859_52861	SVTYPE=INS;SVLEN=13
52861_52864	SVTYPE=INS;SVLEN=469
52864_52867	SVTYPE=DEL;SVLEN=-193
52867_52869	SVTYPE=INS;SVLEN=53
52869_52871	SVTYPE=INS;SVLEN=629
52871_52873	SVTYPE=DEL;SVLEN=-222
52873_52875	SVTYPE=DEL;SVLEN=-24
52875_52877	SVTYPE=INS;SVLEN=55
52877_52879	SVTYPE=INS;SVLEN=0
52879_52881	SVTYPE=INS;SVLEN=2
52881_52883	SVTYPE=DEL;SVLEN=-72
52883_52885	SVTYPE=DEL;SVLEN=-184
52885_52890	SVTYPE=DEL;SVLEN=-5446
52890_52893	SVTYPE=DEL;SVLEN=-287
52893_52894	SVTYPE=INS;SVLEN=57
52894_52896	SVTYPE=DEL;SVLEN=-43
52896_52899	SVTYPE=INS;SVLEN=229
52899_52901	SVTYPE=INS;SVLEN=22
52901_52903	SVTYPE=INS;SVLEN=12
52903_52905	SVTYPE=INS;SVLEN=67
52905_52906	SVTYPE=DEL;SVLEN=-63
52906_52908	SVTYPE=INS;SVLEN=95
52908_52910	SVTYPE=INS;SVLEN=66
52910_52912	SVTYPE=DEL;SVLEN=-31
52912_52914	SVTYPE=DEL;SVLEN=-47
52914_52916	SVTYPE=DEL;SVLEN=-47
52916_52918	SVTYPE=INS;SVLEN=19
52918_52920	SVTYPE=DEL;SVLEN=-52
52920_52921	SVTYPE=DEL;SVLEN=-1283
52921_52924	SVTYPE=INS;SVLEN=1
52924_52926	SVTYPE=DEL;SVLEN=-209
52926_52928	SVTYPE=DEL;SVLEN=-22
52928_52930	SVTYPE=DEL;SVLEN=-38
52930_52932	SVTYPE=INS;SVLEN=79
52932_52934	SVTYPE=DEL;SVLEN=-25
52934_52937	SVTYPE=INS;SVLEN=914
52937_52940	SVTYPE=DEL;SVLEN=-397
52940_52942	SVTYPE=DEL;SVLEN=-52
52942_52944	SVTYPE=INS;SVLEN=56
52944_52946	SVTYPE=INS;SVLEN=1
52946_52948	SVTYPE=INS;SVLEN=32
52948_52950	SVTYPE=DEL;SVLEN=-55
52950_52952	SVTYPE=DEL;SVLEN=-45
52952_52954	SVTYPE=INS;SVLEN=16
52954_52955	SVTYPE=DEL;SVLEN=-150
52955_52957	SVTYPE=INS;SVLEN=385
52957_52959	SVTYPE=DEL;SVLEN=-6583
52959_52960	SVTYPE=DEL;SVLEN=-302
52960_52962	SVTYPE=DEL;SVLEN=-124
52962_52964	SVTYPE=INS;SVLEN=160
52964_52966	SVTYPE=INS;SVLEN=236
52966_52967	SVTYPE=DEL;SVLEN=-163
52967_52969	SVTYPE=DEL;SVLEN=-26
52969_52971	SVTYPE=DEL;SVLEN=-55
52971_52973	SVTYPE=DEL;SVLEN=-19
52973_52975	SVTYPE=INS;SVLEN=103
52975_52977	SVTYPE=DEL;SVLEN=-160
52977_52979	SVTYPE=DEL;SVLEN=-44
52979_52981	SVTYPE=DEL;SVLEN=-40
52981_52983	SVTYPE=DEL;SVLEN=-413
52983_52986	SVTYPE=INS;SVLEN=5209
52986_52987	SVTYPE=DEL;SVLEN=-61
52987_52989	SVTYPE=INS;SVLEN=42
52989_52993	SVTYPE=DEL;SVLEN=-633
52993_52995	SVTYPE=DEL;SVLEN=-396
52995_52997	SVTYPE=INS;SVLEN=247
52997_52999	SVTYPE=DEL;SVLEN=-286
52999_53003	SVTYPE=DEL;SVLEN=-821
53003_53005	SVTYPE=DEL;SVLEN=-498
53005_53008	SVTYPE=DEL;SVLEN=-6774
53008_53012	SVTYPE=DEL;SVLEN=-256
53012_53014	SVTYPE=INS;SVLEN=648
53014_53015	SVTYPE=INS;SVLEN=329
53015_53017	SVTYPE=INS;SVLEN=201
53017_53023	SVTYPE=INS;SVLEN=2454
53023_53025	SVTYPE=DEL;SVLEN=-23
53025_53027	SVTYPE=DEL;SVLEN=-1085
53027_53029	SVTYPE=DEL;SVLEN=-107
53029_53031	SVTYPE=DEL;SVLEN=-79
53031_53033	SVTYPE=INS;SVLEN=211
53033_53035	SVTYPE=DEL;SVLEN=-113
53035_53037	SVTYPE=DEL;SVLEN=-22
53037_53039	SVTYPE=INS;SVLEN=4
53039_53043	SVTYPE=DEL;SVLEN=-9
53043_53045	SVTYPE=INS;SVLEN=56
53045_53048	SVTYPE=INS;SVLEN=251
53048_53050	SVTYPE=INS;SVLEN=854
53050_53052	SVTYPE=DEL;SVLEN=-46
53052_53054	SVTYPE=INS;SVLEN=729
53054_53057	SVTYPE=INS;SVLEN=783
53057_53059	SVTYPE=DEL;SVLEN=-50
53059_53062	SVTYPE=INS;SVLEN=654
53062_53064	SVTYPE=INS;SVLEN=149
53064_53066	SVTYPE=DEL;SVLEN=-33
53066_53070	SVTYPE=DEL;SVLEN=-645
53070_53073	SVTYPE=DEL;SVLEN=-113
53073_53075	SVTYPE=INS;SVLEN=1059
53075_53077	SVTYPE=INS;SVLEN=29
53077_53079	SVTYPE=INS;SVLEN=1001
53079_53081	SVTYPE=DEL;SVLEN=-39
53081_53083	SVTYPE=INS;SVLEN=5
53083_53085	SVTYPE=DEL;SVLEN=-67
53085_53087	SVTYPE=INS;SVLEN=212
53087_53090	SVTYPE=DEL;SVLEN=-306
53090_53092	SVTYPE=INS;SVLEN=42
53092_53094	SVTYPE=DEL;SVLEN=-129
53094_53096	SVTYPE=DEL;SVLEN=-942
53096_53098	SVTYPE=INS;SVLEN=38
53098_53100	SVTYPE=INS;SVLEN=174
53100_53102	SVTYPE=INS;SVLEN=43
53102_53104	SVTYPE=INS;SVLEN=35
53104_53106	SVTYPE=INS;SVLEN=367
53106_53110	SVTYPE=INS;SVLEN=1670
53110_53112	SVTYPE=INS;SVLEN=481
53112_53114	SVTYPE=INS;SVLEN=75
53114_53118	SVTYPE=DEL;SVLEN=-406
53118_53119	SVTYPE=INS;SVLEN=333
53119_53121	SVTYPE=DEL;SVLEN=-109
53121_53123	SVTYPE=DEL;SVLEN=-13
53123_53125	SVTYPE=INS;SVLEN=328
53125_53127	SVTYPE=DEL;SVLEN=-139
53127_53129	SVTYPE=INS;SVLEN=457
53129_53131	SVTYPE=DEL;SVLEN=-1216
53131_53133	SVTYPE=DEL;SVLEN=-55
53133_53135	SVTYPE=INS;SVLEN=40
53135_53137	SVTYPE=DEL;SVLEN=-26
53137_53140	SVTYPE=INS;SVLEN=31
53140_53142	SVTYPE=INS;SVLEN=101
53142_53144	SVTYPE=INS;SVLEN=655
53144_53145	SVTYPE=DEL;SVLEN=-63
53145_53147	SVTYPE=INS;SVLEN=39
53147_53149	SVTYPE=INS;SVLEN=699
53149_53151	SVTYPE=INS;SVLEN=30
53151_53153	SVTYPE=INS;SVLEN=228
53153_53155	SVTYPE=DEL;SVLEN=-742
53155_53157	SVTYPE=INS;SVLEN=76
53157_53158	SVTYPE=INS;SVLEN=144
53158_53160	SVTYPE=INS;SVLEN=83
53160_53164	SVTYPE=INS;SVLEN=360
53164_53166	SVTYPE=INS;SVLEN=129
53166_53169	SVTYPE=INS;SVLEN=1322
53169_53171	SVTYPE=DEL;SVLEN=-28
53171_53173	SVTYPE=INS;SVLEN=127
53173_53175	SVTYPE=DEL;SVLEN=-30
53175_53177	SVTYPE=INS;SVLEN=249
53177_53179	SVTYPE=INS;SVLEN=131
53179_53181	SVTYPE=DEL;SVLEN=-47
53181_53183	SVTYPE=INS;SVLEN=45
53183_53185	SVTYPE=DEL;SVLEN=-126
53185_53187	SVTYPE=DEL;SVLEN=-23
53187_53189	SVTYPE=DEL;SVLEN=-34
53189_53195	SVTYPE=DEL;SVLEN=-6892
53195_53197	SVTYPE=DEL;SVLEN=-45
53197_53199	SVTYPE=DEL;SVLEN=-357
53199_53201	SVTYPE=DEL;SVLEN=-38
53201_53203	SVTYPE=INS;SVLEN=695
53203_53205	SVTYPE=INS;SVLEN=237
53205_53207	SVTYPE=DEL;SVLEN=-9
53207_53209	SVTYPE=INS;SVLEN=518
53209_53211	SVTYPE=INS;SVLEN=4369
53211_53213	SVTYPE=INS;SVLEN=210
53213_53215	SVTYPE=INS;SVLEN=84
53215_53217	SVTYPE=DEL;SVLEN=-95
53217_53219	SVTYPE=INS;SVLEN=359
53219_53221	SVTYPE=DEL;SVLEN=-122
53221_53223	SVTYPE=INS;SVLEN=115
53223_53225	SVTYPE=DEL;SVLEN=-534
53225_53227	SVTYPE=INS;SVLEN=55
53227_53229	SVTYPE=INS;SVLEN=1709
53229_53231	SVTYPE=DEL;SVLEN=-10
53231_53234	SVTYPE=INS;SVLEN=1692
53234_53238	SVTYPE=DEL;SVLEN=-32
53238_53240	SVTYPE=DEL;SVLEN=-4977
53240_53242	SVTYPE=DEL;SVLEN=-137
53242_53244	SVTYPE=INS;SVLEN=29
53244_53246	SVTYPE=INS;SVLEN=131
53246_53249	SVTYPE=INS;SVLEN=14
53249_53253	SVTYPE=DEL;SVLEN=-59
53253_53255	SVTYPE=INS;SVLEN=643
53255_53258	SVTYPE=INS;SVLEN=1197
53258_53260	SVTYPE=INS;SVLEN=548
53260_53262	SVTYPE=INS;SVLEN=276
53262_53264	SVTYPE=DEL;SVLEN=-1333
53264_53267	SVTYPE=INS;SVLEN=169
53267_53270	SVTYPE=INS;SVLEN=558
53270_53272	SVTYPE=INS;SVLEN=60
53272_53274	SVTYPE=INS;SVLEN=62
53274_53277	SVTYPE=INS;SVLEN=137
53277_53278	SVTYPE=DEL;SVLEN=-67
53278_53280	SVTYPE=DEL;SVLEN=-221
53280_53282	SVTYPE=INS;SVLEN=441
53282_53286	SVTYPE=INS;SVLEN=174
53286_53288	SVTYPE=INS;SVLEN=3
53288_53290	SVTYPE=INS;SVLEN=886
53290_53295	SVTYPE=DEL;SVLEN=-248
53295_53297	SVTYPE=DEL;SVLEN=-59
53297_53300	SVTYPE=INS;SVLEN=1564
53300_53304	SVTYPE=DEL;SVLEN=-73
53304_53306	SVTYPE=DEL;SVLEN=-52
53306_53309	SVTYPE=INS;SVLEN=35
53309_53310	SVTYPE=INS;SVLEN=56
53310_53312	SVTYPE=DEL;SVLEN=-32
53312_53314	SVTYPE=DEL;SVLEN=-44
53314_53316	SVTYPE=DEL;SVLEN=-22
53316_53318	SVTYPE=INS;SVLEN=593
53318_53320	SVTYPE=INS;SVLEN=62
53320_53322	SVTYPE=DEL;SVLEN=-760
53322_53324	SVTYPE=DEL;SVLEN=-90
53324_53326	SVTYPE=DEL;SVLEN=-33
53326_53328	SVTYPE=DEL;SVLEN=-33
53328_53330	SVTYPE=INS;SVLEN=124
53330_53332	SVTYPE=DEL;SVLEN=-50
53332_53334	SVTYPE=INS;SVLEN=856
53334_53336	SVTYPE=DEL;SVLEN=-44
53336_53339	SVTYPE=DEL;SVLEN=-50
53339_53340	SVTYPE=INS;SVLEN=188
53340_53345	SVTYPE=INS;SVLEN=2749
53345_53347	SVTYPE=INS;SVLEN=1428
53347_53349	SVTYPE=INS;SVLEN=623
53349_53352	SVTYPE=INS;SVLEN=505
53352_53354	SVTYPE=DEL;SVLEN=-34
53354_53356	SVTYPE=DEL;SVLEN=-33
53356_53358	SVTYPE=INS;SVLEN=668
53358_53360	SVTYPE=DEL;SVLEN=-78
53360_53362	SVTYPE=INS;SVLEN=26
53362_53366	SVTYPE=INS;SVLEN=82
53366_53370	SVTYPE=DEL;SVLEN=-1100
53370_53372	SVTYPE=DEL;SVLEN=-94
53372_53373	SVTYPE=INS;SVLEN=571
53373_53375	SVTYPE=INS;SVLEN=38
53375_53377	SVTYPE=DEL;SVLEN=-48
53377_53379	SVTYPE=INS;SVLEN=665
53379_53383	SVTYPE=DEL;SVLEN=-1127
53383_53388	SVTYPE=INS;SVLEN=333
53388_53389	SVTYPE=DEL;SVLEN=-56
53389_53391	SVTYPE=DEL;SVLEN=-106
53391_53392	SVTYPE=DEL;SVLEN=-128
53392_53393	SVTYPE=DEL;SVLEN=-92
53393_53400	SVTYPE=INS;SVLEN=2077
53400_53402	SVTYPE=INS;SVLEN=41
53402_53403	SVTYPE=INS;SVLEN=2221
53403_53405	SVTYPE=DEL;SVLEN=-141
53405_53408	SVTYPE=DEL;SVLEN=-141
53408_53410	SVTYPE=INS;SVLEN=36
53410_53412	SVTYPE=DEL;SVLEN=-201
53412_53414	SVTYPE=INS;SVLEN=668
53414_53416	SVTYPE=DEL;SVLEN=-110
53416_53418	SVTYPE=DEL;SVLEN=-3
53418_53420	SVTYPE=INS;SVLEN=858
53420_53422	SVTYPE=INS;SVLEN=10
53422_53424	SVTYPE=DEL;SVLEN=-44
53424_53426	SVTYPE=INS;SVLEN=64
53426_53428	SVTYPE=INS;SVLEN=46
53428_53430	SVTYPE=INS;SVLEN=62
53430_53432	SVTYPE=INS;SVLEN=88
53432_53436	SVTYPE=INS;SVLEN=527
53436_53438	SVTYPE=DEL;SVLEN=-118
53438_53440	SVTYPE=DEL;SVLEN=-56
53440_53442	SVTYPE=DEL;SVLEN=-14
53442_53445	SVTYPE=INS;SVLEN=105
53445_53448	SVTYPE=INS;SVLEN=898
53448_53450	SVTYPE=DEL;SVLEN=-512
53450_53452	SVTYPE=DEL;SVLEN=-117
53452_53454	SVTYPE=INS;SVLEN=2925
53454_53456	SVTYPE=DEL;SVLEN=-24
53456_53458	SVTYPE=INS;SVLEN=69
53458_53468	SVTYPE=INS;SVLEN=13930
53468_53481	SVTYPE=DEL;SVLEN=-1377
53481_53483	SVTYPE=DEL;SVLEN=-96
53483_53487	SVTYPE=INS;SVLEN=2564
53487_53489	SVTYPE=DEL;SVLEN=-75
53489_53491	SVTYPE=DEL;SVLEN=-26
53491_53493	SVTYPE=INS;SVLEN=48
53493_53495	SVTYPE=INS;SVLEN=229
53495_53497	SVTYPE=INS;SVLEN=5954
53497_53499	SVTYPE=INS;SVLEN=58
53499_53501	SVTYPE=INS;SVLEN=61
53501_53503	SVTYPE=DEL;SVLEN=-18
53503_53507	SVTYPE=INS;SVLEN=712
53507_53509	SVTYPE=DEL;SVLEN=-24
53509_53511	SVTYPE=INS;SVLEN=22
53511_53515	SVTYPE=DEL;SVLEN=-115
53515_53517	SVTYPE=INS;SVLEN=231
53517_53522	SVTYPE=INS;SVLEN=3017
53522_53524	SVTYPE=INS;SVLEN=55
53524_53526	SVTYPE=DEL;SVLEN=-328
53526_53528	SVTYPE=DEL;SVLEN=-234
53528_53532	SVTYPE=INS;SVLEN=8
53532_53536	SVTYPE=DEL;SVLEN=-9
53536_53538	SVTYPE=INS;SVLEN=19
53538_53540	SVTYPE=DEL;SVLEN=-814
53540_53542	SVTYPE=INS;SVLEN=48
53542_53544	SVTYPE=INS;SVLEN=93
53544_53547	SVTYPE=DEL;SVLEN=-270
53547_53549	SVTYPE=INS;SVLEN=59
53549_53554	SVTYPE=DEL;SVLEN=-425
53554_53558	SVTYPE=DEL;SVLEN=-686
53558_53560	SVTYPE=DEL;SVLEN=-37
53560_53561	SVTYPE=DEL;SVLEN=-161
53561_53563	SVTYPE=DEL;SVLEN=-54
53563_53565	SVTYPE=INS;SVLEN=150
53565_53567	SVTYPE=INS;SVLEN=346
53567_53569	SVTYPE=INS;SVLEN=251
53569_53571	SVTYPE=INS;SVLEN=6
53571_53573	SVTYPE=INS;SVLEN=319
53573_53577	SVTYPE=INS;SVLEN=21
53577_53579	SVTYPE=DEL;SVLEN=-51
53579_53581	SVTYPE=DEL;SVLEN=-1389
53581_53583	SVTYPE=INS;SVLEN=41
53583_53586	SVTYPE=DEL;SVLEN=-55
53586_53588	SVTYPE=INS;SVLEN=41
53588_53590	SVTYPE=DEL;SVLEN=-11
53590_53592	SVTYPE=INS;SVLEN=711
53592_53594	SVTYPE=INS;SVLEN=541
53594_53596	SVTYPE=DEL;SVLEN=-54
53596_53598	SVTYPE=INS;SVLEN=66
53598_53600	SVTYPE=INS;SVLEN=147
53600_53602	SVTYPE=DEL;SVLEN=-6
53602_53604	SVTYPE=INS;SVLEN=122
53604_53606	SVTYPE=INS;SVLEN=643
53606_53608	SVTYPE=INS;SVLEN=49
53608_53610	SVTYPE=INS;SVLEN=26
53610_53614	SVTYPE=INS;SVLEN=539
53614_53616	SVTYPE=DEL;SVLEN=-85
